dump.vcd
$version Generated by VerilatedVcd $end
$timescale 1ps $end
 $scope module  $end
  $var wire 4 # a_in [3:0] $end
  $var wire 4 $ b_in [3:0] $end
  $var wire 1 % clk $end
  $var wire 1 & scan_en $end
  $var wire 1 ' scan_in $end
  $var wire 1 ( scan_out $end
  $var wire 5 ) x_out [4:0] $end
  $scope module adder $end
   $var wire 4 * a_in [3:0] $end
   $var wire 1 + a_reg[0] $end
   $var wire 1 , a_reg[1] $end
   $var wire 1 - a_reg[2] $end
   $var wire 1 . a_reg[3] $end
   $var wire 4 / b_in [3:0] $end
   $var wire 1 0 b_reg[0] $end
   $var wire 1 1 b_reg[1] $end
   $var wire 1 2 b_reg[2] $end
   $var wire 1 3 b_reg[3] $end
   $var wire 1 4 clk $end
   $var wire 1 5 scan_en $end
   $var wire 1 6 scan_in $end
   $var wire 1 7 scan_out $end
   $var wire 5 8 x_out [4:0] $end
  $upscope $end
 $upscope $end
$enddefinitions $end


#0
b0000 #
b0000 $
1%
1&
1'
0(
b00001 )
b0000 *
0+
0,
0-
0.
b0000 /
00
01
02
03
14
15
16
07
b00001 8
#10000
0%
04
#20000
1%
b00011 )
14
b00011 8
#30000
0%
04
#40000
1%
b00111 )
14
b00111 8
#50000
0%
04
#60000
1%
0'
b01110 )
14
06
b01110 8
#70000
0%
04
#80000
1%
b11100 )
14
b11100 8
#90000
0%
04
#100000
1%
1'
b11001 )
1+
14
16
b11001 8
#110000
0%
04
#120000
1%
b10011 )
1,
14
b10011 8
#130000
0%
04
#140000
1%
b00111 )
1-
14
b00111 8
#150000
0%
04
#160000
1%
0'
b01110 )
0+
1.
14
06
b01110 8
#170000
0%
04
#180000
1%
b11100 )
0,
10
14
b11100 8
#190000
0%
04
#200000
1%
b11000 )
1+
0-
11
14
b11000 8
#210000
0%
04
#220000
1%
b10000 )
1,
0.
12
14
b10000 8
#230000
0%
04
#240000
1%
1(
b00000 )
1-
00
13
14
17
b00000 8
#250000
0%
04
#260000
1%
0&
0(
b10101 )
0+
0,
0-
01
02
03
14
05
07
b10101 8
#270000
0%
04
#280000
1%
1&
b01010 )
1+
14
15
b01010 8
#290000
0%
04
#300000
1%
b10100 )
0+
1,
14
b10100 8
#310000
0%
04
#320000
1%
b01000 )
1+
0,
1-
14
b01000 8
#330000
0%
04
#340000
1%
b10000 )
0+
1,
0-
1.
14
b10000 8
#350000
0%
04
#360000
1%
b00000 )
1+
0,
1-
0.
10
14
b00000 8
#370000
0%
04
#380000
1%
0+
1,
0-
1.
00
11
14
#390000
0%
04
#400000
1%
0,
1-
0.
10
01
12
14
#410000
0%
04
#420000
1%
1(
0-
1.
00
11
02
13
14
17
#430000
0%
04
#440000
1%
0(
0.
10
01
12
03
14
07
#450000
0%
04
#460000
1%
1(
00
11
02
13
14
17
#470000
0%
04
#480000
1%
0(
01
12
03
14
07
#490000
0%
04
#500000
1%
1(
02
13
14
17
#510000
0%
04
#520000
1%
0(
03
14
07
