hidden_fsm/dump.vcd
$version Generated by VerilatedVcd $end
$timescale 1ps $end
 $scope module  $end
  $var wire 1 # buf_en $end
  $var wire 1 $ clk $end
  $var wire 1 % data_avail $end
  $var wire 2 & out_sel [1:0] $end
  $var wire 1 ' out_writing $end
  $var wire 1 ( scan_en $end
  $var wire 1 ) scan_in $end
  $var wire 1 * scan_out $end
  $scope module hidden_fsm $end
   $var wire 1 + buf_en $end
   $var wire 1 , clk $end
   $var wire 1 - cur_state[0] $end
   $var wire 1 . cur_state[1] $end
   $var wire 1 / cur_state[2] $end
   $var wire 1 0 data_avail $end
   $var wire 1 1 nstate[0] $end
   $var wire 1 2 nstate[1] $end
   $var wire 1 3 nstate[2] $end
   $var wire 2 4 out_sel [1:0] $end
   $var wire 1 5 out_writing $end
   $var wire 1 6 scan_en $end
   $var wire 1 7 scan_in $end
   $var wire 1 8 scan_out $end
  $upscope $end
 $upscope $end
$enddefinitions $end


#0
1#
1$
0%
b00 &
0'
1(
0)
0*
1+
1,
0-
0.
0/
00
01
02
13
b00 4
05
16
07
08
#10000
0$
0,
#20000
1$
1,
#30000
0$
0,
#40000
1$
1,
#50000
0$
0,
#60000
1$
0(
1,
06
#70000
0$
0,
#80000
1$
1(
1,
16
#90000
0$
0,
#100000
1$
1,
#110000
0$
0,
#120000
1$
1,
#130000
0$
0,
#140000
0#
1$
1%
b01 &
1'
0(
1*
0+
1,
1/
10
11
03
b01 4
15
06
18
#150000
0$
0,
#160000
1#
1$
b00 &
0'
1(
0*
1+
1,
0/
01
13
b00 4
05
16
08
#170000
0$
0,
#180000
1$
1,
#190000
0$
0,
#200000
1$
1,
#210000
0$
0,
#220000
1$
1,
#230000
0$
0,
#240000
1$
1,
#250000
0$
0,
#260000
0#
1$
b10 &
1'
1)
0+
1,
1-
12
03
b10 4
15
17
#270000
0$
0,
#280000
1$
0%
b11 &
0(
1,
0-
1.
00
11
b11 4
06
#290000
0$
0,
#300000
1$
b00 &
0'
1(
1*
1,
1-
0.
1/
01
02
13
b00 4
05
16
18
#310000
0$
0,
#320000
1#
1$
0*
1+
1,
1.
0/
03
08
#330000
0$
0,
#340000
0#
1$
1*
0+
1,
1/
13
18
#350000
0$
0,
#360000
1$
1%
0(
1,
10
06
#370000
0$
0,
#380000
1$
1(
1,
16
#390000
0$
0,
#400000
1$
1,
#410000
0$
0,
#420000
1$
1,
#430000
0$
0,
#440000
1$
0)
1,
0-
07
#450000
0$
0,
#460000
1$
1)
1,
1-
0.
17
#470000
0$
0,
#480000
1$
b11 &
1'
0)
0*
1,
0-
1.
0/
11
12
03
b11 4
15
07
08
#490000
0$
0,
#500000
1#
1$
0%
b00 &
0'
0(
1+
1,
1-
00
01
02
b00 4
05
06
#510000
0$
0,
#520000
0#
1$
1(
1*
0+
1,
0-
1/
13
16
18
#530000
0$
0,
#540000
1$
b01 &
1'
1,
0.
11
03
b01 4
15
#550000
0$
0,
#560000
1#
1$
b00 &
0'
0*
1+
1,
0/
01
13
b00 4
05
08
#570000
0$
0,
#580000
0#
1$
1%
b01 &
1'
0(
1*
0+
1,
1/
10
11
03
b01 4
15
06
18
#590000
0$
0,
#600000
1#
1$
b00 &
0'
1(
0*
1+
1,
0/
01
13
b00 4
05
16
08
#610000
0$
0,
#620000
1$
1,
#630000
0$
0,
#640000
1$
1,
#650000
0$
0,
#660000
1$
1,
#670000
0$
0,
#680000
0#
1$
b10 &
1'
1)
0+
1,
1-
12
03
b10 4
15
17
#690000
0$
0,
#700000
1#
1$
b00 &
0'
1+
1,
1.
02
13
b00 4
05
#710000
0$
0,
#720000
1$
0%
0(
1,
0-
0.
00
06
#730000
0$
0,
#740000
0#
1$
b10 &
1'
1(
0+
1,
1-
12
03
b10 4
15
16
#750000
0$
0,
#760000
1#
1$
b00 &
0'
1+
1,
1.
02
b00 4
05
#770000
0$
0,
#780000
0#
1$
1*
0+
1,
1/
13
18
#790000
0$
0,
#800000
1$
1%
0(
1,
10
06
#810000
0$
0,
#820000
1$
1(
1,
16
#830000
0$
0,
#840000
1$
1,
#850000
0$
0,
#860000
1$
1,
#870000
0$
0,
#880000
1$
1,
#890000
0$
0,
#900000
1$
0)
1,
0-
07
#910000
0$
0,
#920000
1$
b01 &
1'
1,
0.
11
03
b01 4
15
#930000
0$
0,
#940000
1$
0%
b10 &
0(
0*
1,
1-
0/
00
01
12
b10 4
06
08
#950000
0$
0,
#960000
1$
b11 &
1(
1,
0-
1.
11
b11 4
16
#970000
0$
0,
#980000
1$
b01 &
1*
1,
0.
1/
02
b01 4
18
#990000
0$
0,
#1000000
1#
1$
b00 &
0'
0*
1+
1,
0/
01
13
b00 4
05
08
#1010000
0$
0,
#1020000
0#
1$
1%
b01 &
1'
0(
1*
0+
1,
1/
10
11
03
b01 4
15
06
18
#1030000
0$
0,
#1040000
1#
1$
b00 &
0'
1(
0*
1+
1,
0/
01
13
b00 4
05
16
08
#1050000
0$
0,
#1060000
1$
1,
#1070000
0$
0,
#1080000
1$
1,
#1090000
0$
0,
#1100000
0#
1$
b10 &
1'
1)
0+
1,
1-
12
03
b10 4
15
17
#1110000
0$
0,
#1120000
1$
b11 &
0)
1,
0-
1.
11
b11 4
07
#1130000
0$
0,
#1140000
1$
b00 &
0'
1)
1*
1,
1-
0.
1/
01
02
13
b00 4
05
17
18
#1150000
0$
0,
#1160000
1$
0%
0(
1,
00
06
#1170000
0$
0,
#1180000
1#
1$
1(
0*
1+
1,
1.
0/
03
16
08
#1190000
0$
0,
#1200000
0#
1$
1*
0+
1,
1/
13
18
#1210000
0$
0,
#1220000
1$
1,
#1230000
0$
0,
#1240000
1$
1%
0(
1,
10
06
#1250000
0$
0,
#1260000
1$
1(
1,
16
#1270000
0$
0,
#1280000
1$
1,
#1290000
0$
0,
#1300000
1$
1,
#1310000
0$
0,
#1320000
1$
1,
#1330000
0$
0,
#1340000
1$
1,
#1350000
0$
0,
#1360000
1$
0)
1,
0-
07
#1370000
0$
0,
#1380000
1$
0%
0(
1,
00
06
#1390000
0$
0,
#1400000
1$
b01 &
1'
1(
1,
0.
11
03
b01 4
15
16
#1410000
0$
0,
#1420000
1#
1$
b00 &
0'
0*
1+
1,
0/
01
13
b00 4
05
08
#1430000
0$
0,
#1440000
1$
1,
#1450000
0$
0,
#1460000
0#
1$
1%
b01 &
1'
0(
1*
0+
1,
1/
10
11
03
b01 4
15
06
18
#1470000
0$
0,
#1480000
1#
1$
b00 &
0'
1(
0*
1+
1,
0/
01
13
b00 4
05
16
08
#1490000
0$
0,
#1500000
1$
1,
#1510000
0$
0,
#1520000
1$
1,
#1530000
0$
0,
#1540000
0#
1$
b10 &
1'
1)
0+
1,
1-
12
03
b10 4
15
17
#1550000
0$
0,
#1560000
1#
1$
b00 &
0'
1+
1,
1.
02
13
b00 4
05
#1570000
0$
0,
#1580000
0#
1$
1*
0+
1,
1/
18
#1590000
0$
0,
#1600000
1$
0%
0(
1,
00
06
#1610000
0$
0,
#1620000
1$
1(
1,
16
#1630000
0$
0,
#1640000
1$
1,
#1650000
0$
0,
#1660000
1$
1,
#1670000
0$
0,
#1680000
1$
1%
0(
1,
10
06
#1690000
0$
0,
#1700000
1$
1(
1,
16
